"","Time Period","Time Frame","Area Type","Functional Class","year","month","Speed","Functional.Name","Functional Classification","month_num","Vehicles","Time_Of_Day","key","Speed.last_month","Speed.last_year","Speed.from_jan"
"1","Weekdays","All in this Time Period","All in this Time Period",NA,2019,"JAN","47",NA,NA,1,"All","AM","All AM All in this Time Period",NA,NA,"47"
"2","Weekdays","All in this Time Period","All in this Time Period",NA,2019,"FEB","46.3",NA,NA,2,"All","AM","All AM All in this Time Period","47",NA,"47"
"3","Weekdays","All in this Time Period","All in this Time Period",NA,2019,"MAR","47.3",NA,NA,3,"All","AM","All AM All in this Time Period","46.3",NA,"47"
"4","Weekdays","All in this Time Period","All in this Time Period",NA,2019,"APR","47.3",NA,NA,4,"All","AM","All AM All in this Time Period","47.3",NA,"47"
"5","Weekdays","All in this Time Period","All in this Time Period",NA,2019,"MAY","47.1",NA,NA,5,"All","AM","All AM All in this Time Period","47.3",NA,"47"
"6","Weekdays","All in this Time Period","All in this Time Period",NA,2019,"JUN","47.9",NA,NA,6,"All","AM","All AM All in this Time Period","47.1",NA,"47"
"7","Weekdays","All in this Time Period","All in this Time Period",NA,2019,"JAN","47.1",NA,NA,1,"All","PM","All PM All in this Time Period",NA,NA,"47.1"
"8","Weekdays","All in this Time Period","All in this Time Period",NA,2019,"FEB","46.5",NA,NA,2,"All","PM","All PM All in this Time Period","47.1",NA,"47.1"
"9","Weekdays","All in this Time Period","All in this Time Period",NA,2019,"MAR","46.7",NA,NA,3,"All","PM","All PM All in this Time Period","46.5",NA,"47.1"
"10","Weekdays","All in this Time Period","All in this Time Period",NA,2019,"APR","46.4",NA,NA,4,"All","PM","All PM All in this Time Period","46.7",NA,"47.1"
"11","Weekdays","All in this Time Period","All in this Time Period",NA,2019,"MAY","46",NA,NA,5,"All","PM","All PM All in this Time Period","46.4",NA,"47.1"
"12","Weekdays","All in this Time Period","All in this Time Period",NA,2019,"JUN","46",NA,NA,6,"All","PM","All PM All in this Time Period","46",NA,"47.1"
"13","Weekdays","All in this Time Period","All in this Time Period",NA,2020,"JAN","47.4",NA,NA,1,"All","AM","All AM All in this Time Period",NA,"47","47.4"
"14","Weekdays","All in this Time Period","All in this Time Period",NA,2020,"FEB","47.2",NA,NA,2,"All","AM","All AM All in this Time Period","47.4","46.3","47.4"
"15","Weekdays","All in this Time Period","All in this Time Period",NA,2020,"MAR","49.3",NA,NA,3,"All","AM","All AM All in this Time Period","47.2","47.3","47.4"
"16","Weekdays","All in this Time Period","All in this Time Period",NA,2020,"APR","51.5",NA,NA,4,"All","AM","All AM All in this Time Period","49.3","47.3","47.4"
"17","Weekdays","All in this Time Period","All in this Time Period",NA,2020,"MAY","50.8",NA,NA,5,"All","AM","All AM All in this Time Period","51.5","47.1","47.4"
"18","Weekdays","All in this Time Period","All in this Time Period",NA,2020,"JUN","50.5",NA,NA,6,"All","AM","All AM All in this Time Period","50.8","47.9","47.4"
"19","Weekdays","All in this Time Period","All in this Time Period",NA,2020,"JAN","47.4",NA,NA,1,"All","PM","All PM All in this Time Period",NA,"47.1","47.4"
"20","Weekdays","All in this Time Period","All in this Time Period",NA,2020,"FEB","47.1",NA,NA,2,"All","PM","All PM All in this Time Period","47.4","46.5","47.4"
"21","Weekdays","All in this Time Period","All in this Time Period",NA,2020,"MAR","49",NA,NA,3,"All","PM","All PM All in this Time Period","47.1","46.7","47.4"
"22","Weekdays","All in this Time Period","All in this Time Period",NA,2020,"APR","50.8",NA,NA,4,"All","PM","All PM All in this Time Period","49","46.4","47.4"
"23","Weekdays","All in this Time Period","All in this Time Period",NA,2020,"MAY","49.6",NA,NA,5,"All","PM","All PM All in this Time Period","50.8","46","47.4"
"24","Weekdays","All in this Time Period","All in this Time Period",NA,2020,"JUN","48.7",NA,NA,6,"All","PM","All PM All in this Time Period","49.6","46","47.4"
"25","Weekdays","All in this Time Period","All in this Time Period",NA,2019,"JAN","47.3",NA,NA,1,"Passenger","AM","Passenger AM All in this Time Period",NA,NA,"47.3"
"26","Weekdays","All in this Time Period","All in this Time Period",NA,2019,"FEB","46.6",NA,NA,2,"Passenger","AM","Passenger AM All in this Time Period","47.3",NA,"47.3"
"27","Weekdays","All in this Time Period","All in this Time Period",NA,2019,"MAR","47.5",NA,NA,3,"Passenger","AM","Passenger AM All in this Time Period","46.6",NA,"47.3"
"28","Weekdays","All in this Time Period","All in this Time Period",NA,2019,"APR","47.4",NA,NA,4,"Passenger","AM","Passenger AM All in this Time Period","47.5",NA,"47.3"
"29","Weekdays","All in this Time Period","All in this Time Period",NA,2019,"MAY","47.2",NA,NA,5,"Passenger","AM","Passenger AM All in this Time Period","47.4",NA,"47.3"
"30","Weekdays","All in this Time Period","All in this Time Period",NA,2019,"JUN","48",NA,NA,6,"Passenger","AM","Passenger AM All in this Time Period","47.2",NA,"47.3"
"31","Weekdays","All in this Time Period","All in this Time Period",NA,2019,"JAN","47.4",NA,NA,1,"Passenger","PM","Passenger PM All in this Time Period",NA,NA,"47.4"
"32","Weekdays","All in this Time Period","All in this Time Period",NA,2019,"FEB","46.8",NA,NA,2,"Passenger","PM","Passenger PM All in this Time Period","47.4",NA,"47.4"
"33","Weekdays","All in this Time Period","All in this Time Period",NA,2019,"MAR","46.9",NA,NA,3,"Passenger","PM","Passenger PM All in this Time Period","46.8",NA,"47.4"
"34","Weekdays","All in this Time Period","All in this Time Period",NA,2019,"APR","46.6",NA,NA,4,"Passenger","PM","Passenger PM All in this Time Period","46.9",NA,"47.4"
"35","Weekdays","All in this Time Period","All in this Time Period",NA,2019,"MAY","46.1",NA,NA,5,"Passenger","PM","Passenger PM All in this Time Period","46.6",NA,"47.4"
"36","Weekdays","All in this Time Period","All in this Time Period",NA,2019,"JUN","46.1",NA,NA,6,"Passenger","PM","Passenger PM All in this Time Period","46.1",NA,"47.4"
"37","Weekdays","All in this Time Period","All in this Time Period",NA,2020,"JAN","47.5",NA,NA,1,"Passenger","AM","Passenger AM All in this Time Period",NA,"47.3","47.5"
"38","Weekdays","All in this Time Period","All in this Time Period",NA,2020,"FEB","47.5",NA,NA,2,"Passenger","AM","Passenger AM All in this Time Period","47.5","46.6","47.5"
"39","Weekdays","All in this Time Period","All in this Time Period",NA,2020,"MAR","49.6",NA,NA,3,"Passenger","AM","Passenger AM All in this Time Period","47.5","47.5","47.5"
"40","Weekdays","All in this Time Period","All in this Time Period",NA,2020,"APR","51.9",NA,NA,4,"Passenger","AM","Passenger AM All in this Time Period","49.6","47.4","47.5"
"41","Weekdays","All in this Time Period","All in this Time Period",NA,2020,"MAY","51",NA,NA,5,"Passenger","AM","Passenger AM All in this Time Period","51.9","47.2","47.5"
"42","Weekdays","All in this Time Period","All in this Time Period",NA,2020,"JUN","50.5",NA,NA,6,"Passenger","AM","Passenger AM All in this Time Period","51","48","47.5"
"43","Weekdays","All in this Time Period","All in this Time Period",NA,2020,"JAN","47.6",NA,NA,1,"Passenger","PM","Passenger PM All in this Time Period",NA,"47.4","47.6"
"44","Weekdays","All in this Time Period","All in this Time Period",NA,2020,"FEB","47.3",NA,NA,2,"Passenger","PM","Passenger PM All in this Time Period","47.6","46.8","47.6"
"45","Weekdays","All in this Time Period","All in this Time Period",NA,2020,"MAR","49.2",NA,NA,3,"Passenger","PM","Passenger PM All in this Time Period","47.3","46.9","47.6"
"46","Weekdays","All in this Time Period","All in this Time Period",NA,2020,"APR","51",NA,NA,4,"Passenger","PM","Passenger PM All in this Time Period","49.2","46.6","47.6"
"47","Weekdays","All in this Time Period","All in this Time Period",NA,2020,"MAY","49.7",NA,NA,5,"Passenger","PM","Passenger PM All in this Time Period","51","46.1","47.6"
"48","Weekdays","All in this Time Period","All in this Time Period",NA,2020,"JUN","48.7",NA,NA,6,"Passenger","PM","Passenger PM All in this Time Period","49.7","46.1","47.6"
"49","Weekdays","All in this Time Period","All in this Time Period",NA,2019,"JAN","47.5",NA,NA,1,"Truck","AM","Truck AM All in this Time Period",NA,NA,"47.5"
"50","Weekdays","All in this Time Period","All in this Time Period",NA,2019,"FEB","46.7",NA,NA,2,"Truck","AM","Truck AM All in this Time Period","47.5",NA,"47.5"
"51","Weekdays","All in this Time Period","All in this Time Period",NA,2019,"MAR","47.6",NA,NA,3,"Truck","AM","Truck AM All in this Time Period","46.7",NA,"47.5"
"52","Weekdays","All in this Time Period","All in this Time Period",NA,2019,"APR","47.6",NA,NA,4,"Truck","AM","Truck AM All in this Time Period","47.6",NA,"47.5"
"53","Weekdays","All in this Time Period","All in this Time Period",NA,2019,"MAY","47.7",NA,NA,5,"Truck","AM","Truck AM All in this Time Period","47.6",NA,"47.5"
"54","Weekdays","All in this Time Period","All in this Time Period",NA,2019,"JUN","48.4",NA,NA,6,"Truck","AM","Truck AM All in this Time Period","47.7",NA,"47.5"
"55","Weekdays","All in this Time Period","All in this Time Period",NA,2019,"JAN","47.6",NA,NA,1,"Truck","PM","Truck PM All in this Time Period",NA,NA,"47.6"
"56","Weekdays","All in this Time Period","All in this Time Period",NA,2019,"FEB","47",NA,NA,2,"Truck","PM","Truck PM All in this Time Period","47.6",NA,"47.6"
"57","Weekdays","All in this Time Period","All in this Time Period",NA,2019,"MAR","47.2",NA,NA,3,"Truck","PM","Truck PM All in this Time Period","47",NA,"47.6"
"58","Weekdays","All in this Time Period","All in this Time Period",NA,2019,"APR","47",NA,NA,4,"Truck","PM","Truck PM All in this Time Period","47.2",NA,"47.6"
"59","Weekdays","All in this Time Period","All in this Time Period",NA,2019,"MAY","46.7",NA,NA,5,"Truck","PM","Truck PM All in this Time Period","47",NA,"47.6"
"60","Weekdays","All in this Time Period","All in this Time Period",NA,2019,"JUN","46.7",NA,NA,6,"Truck","PM","Truck PM All in this Time Period","46.7",NA,"47.6"
"61","Weekdays","All in this Time Period","All in this Time Period",NA,2020,"JAN","48.1",NA,NA,1,"Truck","AM","Truck AM All in this Time Period",NA,"47.5","48.1"
"62","Weekdays","All in this Time Period","All in this Time Period",NA,2020,"FEB","47.9",NA,NA,2,"Truck","AM","Truck AM All in this Time Period","48.1","46.7","48.1"
"63","Weekdays","All in this Time Period","All in this Time Period",NA,2020,"MAR","49.7",NA,NA,3,"Truck","AM","Truck AM All in this Time Period","47.9","47.6","48.1"
"64","Weekdays","All in this Time Period","All in this Time Period",NA,2020,"APR","51.8",NA,NA,4,"Truck","AM","Truck AM All in this Time Period","49.7","47.6","48.1"
"65","Weekdays","All in this Time Period","All in this Time Period",NA,2020,"MAY","51.5",NA,NA,5,"Truck","AM","Truck AM All in this Time Period","51.8","47.7","48.1"
"66","Weekdays","All in this Time Period","All in this Time Period",NA,2020,"JUN","51.1",NA,NA,6,"Truck","AM","Truck AM All in this Time Period","51.5","48.4","48.1"
"67","Weekdays","All in this Time Period","All in this Time Period",NA,2020,"JAN","48.3",NA,NA,1,"Truck","PM","Truck PM All in this Time Period",NA,"47.6","48.3"
"68","Weekdays","All in this Time Period","All in this Time Period",NA,2020,"FEB","48",NA,NA,2,"Truck","PM","Truck PM All in this Time Period","48.3","47","48.3"
"69","Weekdays","All in this Time Period","All in this Time Period",NA,2020,"MAR","49.6",NA,NA,3,"Truck","PM","Truck PM All in this Time Period","48","47.2","48.3"
"70","Weekdays","All in this Time Period","All in this Time Period",NA,2020,"APR","51.4",NA,NA,4,"Truck","PM","Truck PM All in this Time Period","49.6","47","48.3"
"71","Weekdays","All in this Time Period","All in this Time Period",NA,2020,"MAY","50.3",NA,NA,5,"Truck","PM","Truck PM All in this Time Period","51.4","46.7","48.3"
"72","Weekdays","All in this Time Period","All in this Time Period",NA,2020,"JUN","49.4",NA,NA,6,"Truck","PM","Truck PM All in this Time Period","50.3","46.7","48.3"
